Weather & Fatality Rates
…
The above list was then joint to the transformed data frame using a left join in order to assign each number to its corresponding weather event type using the “<- left_join()” function.

JoinedFatality <- left_join(fatalityratesnew, newdf, by = c("Type"))

JoinedFatality

## # A tibble: 180 x 5
##    Entity        Year  Type         RatePerMillion TypeNumber
##    <fct>         <fct> <chr>                 <dbl>      <int>
##  1 United States 2015  Wind                 0.202           1
##  2 United States 2015  RipOrCurrent         0.174           2
##  3 United States 2015  Winter               0.0871          3
##  4 United States 2015  Cold                 0.165           4
##  5 United States 2015  Heat                 0.140           5
##  6 United States 2015  Hurricane            0.0436          6
##  7 United States 2015  Tornado              0.112           7
##  8 United States 2015  Flood                0.548           8
##  9 United States 2015  Lightning            0.0840          9
## 10 United States 2014  Wind                 0.169           1
## # ... with 170 more rows
…
